Tema 4
…
---
## Visualización de modelos

* Primero creamos una red de puntos de la variable predictora

```r
library(modelr)
grid <- mtcars %>% 
  data_grid(wt) 

grid
```

```
## # A tibble: 29 × 1
##       wt
##    <dbl>
##  1  1.51
##  2  1.62
##  3  1.84
##  4  1.94
##  5  2.14
##  6  2.2 
##  7  2.32
##  8  2.46
##  9  2.62
## 10  2.77
## # … with 19 more rows
```
…
* Con el modelo, podemos añadir predicciones

```r
reg_mod <- lm(mpg ~ wt, data = mtcars)

grid <- grid %>% 
  add_predictions(reg_mod)

grid
```

```
## # A tibble: 29 × 2
##       wt  pred
##    <dbl> <dbl>
##  1  1.51  29.2
##  2  1.62  28.7
##  3  1.84  27.5
##  4  1.94  26.9
##  5  2.14  25.8
##  6  2.2   25.5
##  7  2.32  24.9
##  8  2.46  24.1
##  9  2.62  23.3
## 10  2.77  22.5
## # … with 19 more rows
```
…
