Tema 2.2 - Transformación
…
Observar únicamente la variable referente a esperanza de vida
(lifeExp)

Pasamos el data frame a través del pipe (%>%) a la
función select()

El argumento es nombre de variable (sin comillas):
lifeExp

Esto de lugar a un dataframe de 1704 filas y 1 columna

gapminder %>%
  select(lifeExp) #<<

## # A tibble: 1,704 × 1
##    lifeExp
##      <dbl>
##  1    28.8
##  2    30.3
##  3    32.0
##  4    34.0
##  5    36.1
##  6    38.4
##  7    39.9
##  8    40.8
##  9    41.7
## 10    41.8
## # … with 1,694 more rows

Seleccionar múltiples columnas

gapminder %>%
  select(lifeExp, country) #<<

## # A tibble: 1,704 × 2
##    lifeExp country    
##      <dbl> <fct>      
##  1    28.8 Afghanistan
##  2    30.3 Afghanistan
##  3    32.0 Afghanistan
##  4    34.0 Afghanistan
##  5    36.1 Afghanistan
##  6    38.4 Afghanistan
##  7    39.9 Afghanistan
##  8    40.8 Afghanistan
##  9    41.7 Afghanistan
## 10    41.8 Afghanistan
## # … with 1,694 more rows

Seleccionar múltiples columnas

gapminder %>%
  select(lifeExp:gdpPercap) #<<

## # A tibble: 1,704 × 3
##    lifeExp      pop gdpPercap
##      <dbl>    <int>     <dbl>
##  1    28.8  8425333      779.
##  2    30.3  9240934      821.
##  3    32.0 10267083      853.
##  4    34.0 11537966      836.
##  5    36.1 13079460      740.
##  6    38.4 14880372      786.
##  7    39.9 12881816      978.
##  8    40.8 13867957      852.
##  9    41.7 16317921      649.
## 10    41.8 22227415      635.
## # … with 1,694 more rows

NOTA: los verbos no modifican el data frames. Para
guardar el output como un nuevo dataframe

esperanza_vida <- gapminder %>%
  select(lifeExp) 

Selección inversa

gapminder %>%
  select(-lifeExp, -pop, -year ) #<<

## # A tibble: 1,704 × 3
##    country     continent gdpPercap
##    <fct>       <fct>         <dbl>
##  1 Afghanistan Asia           779.
##  2 Afghanistan Asia           821.
##  3 Afghanistan Asia           853.
##  4 Afghanistan Asia           836.
##  5 Afghanistan Asia           740.
##  6 Afghanistan Asia           786.
##  7 Afghanistan Asia           978.
##  8 Afghanistan Asia           852.
##  9 Afghanistan Asia           649.
## 10 Afghanistan Asia           635.
## # … with 1,694 more rows

Selección inversa

gapminder %>%
  select(-(continent:gdpPercap) ) #<<

## # A tibble: 1,704 × 1
##    country    
##    <fct>      
##  1 Afghanistan
##  2 Afghanistan
##  3 Afghanistan
##  4 Afghanistan
##  5 Afghanistan
##  6 Afghanistan
##  7 Afghanistan
##  8 Afghanistan
##  9 Afghanistan
## 10 Afghanistan
## # … with 1,694 more rows
…
contains("abc"): nombres que contienen
“abc”

matches("(.)//1") : selecciona según expresiones
regulares

num_range("x", 1:3): selecciona x1, x2 y x3

Ejemplo

gapminder %>%
  select( starts_with("co")) #<<

## # A tibble: 1,704 × 2
##    country     continent
##    <fct>       <fct>    
##  1 Afghanistan Asia     
##  2 Afghanistan Asia     
##  3 Afghanistan Asia     
##  4 Afghanistan Asia     
##  5 Afghanistan Asia     
##  6 Afghanistan Asia     
##  7 Afghanistan Asia     
##  8 Afghanistan Asia     
##  9 Afghanistan Asia     
## 10 Afghanistan Asia     
## # … with 1,694 more rows

Seleccionar todas

everything() es útil para colocar ciertas variables al
inicio del data frame

gapminder %>%
  select( year, everything() ) #<<

## # A tibble: 1,704 × 6
##     year country     continent lifeExp      pop gdpPercap
##    <int> <fct>       <fct>       <dbl>    <int>     <dbl>
##  1  1952 Afghanistan Asia         28.8  8425333      779.
##  2  1957 Afghanistan Asia         30.3  9240934      821.
##  3  1962 Afghanistan Asia         32.0 10267083      853.
##  4  1967 Afghanistan Asia         34.0 11537966      836.
##  5  1972 Afghanistan Asia         36.1 13079460      740.
##  6  1977 Afghanistan Asia         38.4 14880372      786.
##  7  1982 Afghanistan Asia         39.9 12881816      978.
##  8  1987 Afghanistan Asia         40.8 13867957      852.
##  9  1992 Afghanistan Asia         41.7 16317921      649.
## 10  1997 Afghanistan Asia         41.8 22227415      635.
## # … with 1,694 more rows

Transformación de datos: rename

Renombrar

Para renombrar variables, utilizar rename

gapminder %>%
  rename( pais = country ) #<<

## # A tibble: 1,704 × 6
##    pais        continent  year lifeExp      pop gdpPercap
##    <fct>       <fct>     <int>   <dbl>    <int>     <dbl>
##  1 Afghanistan Asia       1952    28.8  8425333      779.
##  2 Afghanistan Asia       1957    30.3  9240934      821.
##  3 Afghanistan Asia       1962    32.0 10267083      853.
##  4 Afghanistan Asia       1967    34.0 11537966      836.
##  5 Afghanistan Asia       1972    36.1 13079460      740.
##  6 Afghanistan Asia       1977    38.4 14880372      786.
##  7 Afghanistan Asia       1982    39.9 12881816      978.
##  8 Afghanistan Asia       1987    40.8 13867957      852.
##  9 Afghanistan Asia       1992    41.7 16317921      649.
## 10 Afghanistan Asia       1997    41.8 22227415      635.
## # … with 1,694 more rows

Transformación de datos: arrange

Ordenar datos

Seleccionemos país, año y esperanza de vida y ordenemos en orden
creciente de esperanzada de vida

gapminder %>%
  select( country, year, lifeExp ) %>% #<<
  arrange(lifeExp) #<<

## # A tibble: 1,704 × 3
##    country       year lifeExp
##    <fct>        <int>   <dbl>
##  1 Rwanda        1992    23.6
##  2 Afghanistan   1952    28.8
##  3 Gambia        1952    30  
##  4 Angola        1952    30.0
##  5 Sierra Leone  1952    30.3
##  6 Afghanistan   1957    30.3
##  7 Cambodia      1977    31.2
##  8 Mozambique    1952    31.3
##  9 Sierra Leone  1957    31.6
## 10 Burkina Faso  1952    32.0
## # … with 1,694 more rows

Ordenar datos

Seleccionemos país, año y esperanza de vida y ordenemos en orden
decreciente de esperanzada de vida

gapminder %>%
  select( country, year, lifeExp ) %>% #<<
  arrange(desc(lifeExp)) #<<

## # A tibble: 1,704 × 3
##    country           year lifeExp
##    <fct>            <int>   <dbl>
##  1 Japan             2007    82.6
##  2 Hong Kong, China  2007    82.2
##  3 Japan             2002    82  
##  4 Iceland           2007    81.8
##  5 Switzerland       2007    81.7
##  6 Hong Kong, China  2002    81.5
##  7 Australia         2007    81.2
##  8 Spain             2007    80.9
##  9 Sweden            2007    80.9
## 10 Israel            2007    80.7
## # … with 1,694 more rows

Ordenar datos

¿Qué sucede?

gapminder %>%
  select( country, year, lifeExp ) %>% #<<
  arrange(desc(country)) #<<

## # A tibble: 1,704 × 3
##    country   year lifeExp
##    <fct>    <int>   <dbl>
##  1 Zimbabwe  1952    48.5
##  2 Zimbabwe  1957    50.5
##  3 Zimbabwe  1962    52.4
##  4 Zimbabwe  1967    54.0
##  5 Zimbabwe  1972    55.6
##  6 Zimbabwe  1977    57.7
##  7 Zimbabwe  1982    60.4
##  8 Zimbabwe  1987    62.4
##  9 Zimbabwe  1992    60.4
## 10 Zimbabwe  1997    46.8
## # … with 1,694 more rows
…
Transformación de datos: distinct

Valores únicos

Filtrar valores únicos de filas

gapminder %>% 
  distinct(continent, year) %>% #<<
  arrange(continent, desc(year) )

## # A tibble: 60 × 2
##    continent  year
##    <fct>     <int>
##  1 Africa     2007
##  2 Africa     2002
##  3 Africa     1997
##  4 Africa     1992
##  5 Africa     1987
##  6 Africa     1982
##  7 Africa     1977
##  8 Africa     1972
##  9 Africa     1967
## 10 Africa     1962
## # … with 50 more rows
…
## # A tibble: 5 × 2
##   continent     n
##   <fct>     <int>
## 1 Oceania       2
## 2 Americas     25
## 3 Europe       30
## 4 Asia         33
## 5 Africa       52

Contar más de una variable

gapminder %>% 
  count(continent, year) #<<

## # A tibble: 60 × 3
##    continent  year     n
##    <fct>     <int> <int>
##  1 Africa     1952    52
##  2 Africa     1957    52
##  3 Africa     1962    52
##  4 Africa     1967    52
##  5 Africa     1972    52
##  6 Africa     1977    52
##  7 Africa     1982    52
##  8 Africa     1987    52
##  9 Africa     1992    52
## 10 Africa     1997    52
## # … with 50 more rows

Transformación de datos: mutate

Añadir nuevas columnas

gapminder %>%
  mutate(gdp = gdpPercap * pop) %>%
  filter(year == 2007) %>%
  arrange( desc(gdp) )

## # A tibble: 142 × 7
##    country      conti…¹  year lifeExp    pop gdpPe…²     gdp
##    <fct>        <fct>   <int>   <dbl>  <int>   <dbl>   <dbl>
##  1 United Stat… Americ…  2007    78.2 3.01e8  42952. 1.29e13
##  2 China        Asia     2007    73.0 1.32e9   4959. 6.54e12
##  3 Japan        Asia     2007    82.6 1.27e8  31656. 4.04e12
##  4 India        Asia     2007    64.7 1.11e9   2452. 2.72e12
##  5 Germany      Europe   2007    79.4 8.24e7  32170. 2.65e12
##  6 United King… Europe   2007    79.4 6.08e7  33203. 2.02e12
##  7 France       Europe   2007    80.7 6.11e7  30470. 1.86e12
##  8 Brazil       Americ…  2007    72.4 1.90e8   9066. 1.72e12
##  9 Italy        Europe   2007    80.5 5.81e7  28570. 1.66e12
## 10 Mexico       Americ…  2007    76.2 1.09e8  11978. 1.30e12
## # … with 132 more rows, and abbreviated variable names
## #   ¹​continent, ²​gdpPercap
…
