Tema 3.1 - Importación de Datos
…
…

readxl

read_excel() - ficheros xls o xlsx

…

Lectura de datos

red_wine_data <- read_csv2("data/red_qualities.csv")
red_wine_data

## # A tibble: 1,599 × 12
##    fixed…¹ volat…² citri…³ resid…⁴ chlor…⁵ free …⁶ total…⁷ density    pH sulph…⁸
##      <dbl> <chr>   <chr>     <dbl> <chr>     <dbl>   <dbl> <chr>   <dbl> <chr>  
##  1      74 0.7     0            19 0.076        11      34 0.9978    351 0.56   
##  2      78 0.88    0            26 0.098        25      67 0.9968     32 0.68   
##  3      78 0.76    0.04         23 0.092        15      54 0.997     326 0.65   
##  4     112 0.28    0.56         19 0.075        17      60 0.998     316 0.58   
##  5      74 0.7     0            19 0.076        11      34 0.9978    351 0.56   
##  6      74 0.66    0            18 0.075        13      40 0.9978    351 0.56   
##  7      79 0.6     0.06         16 0.069        15      59 0.9964     33 0.46   
##  8      73 0.65    0            12 0.065        15      21 0.9946    339 0.47   
##  9      78 0.58    0.02          2 0.073         9      18 0.9968    336 0.57   
## 10      75 0.5     0.36         61 0.071        17     102 0.9978    335 0.8    
## # … with 1,589 more rows, 2 more variables: alcohol <dbl>, quality <dbl>, and
## #   abbreviated variable names ¹​`fixed acidity`, ²​`volatile acidity`,
## #   ³​`citric acid`, ⁴​`residual sugar`, ⁵​chlorides, ⁶​`free sulfur dioxide`,
## #   ⁷​`total sulfur dioxide`, ⁸​sulphates
…
